{
    "env": {
        "MYSQL_HOST"        : "www.agrovgs.com.br",
        "MYSQL_USER"        : "agrovg66_cifarm",
        "MYSQL_PASSWORD"    : "PROJETOcifarm123$",
        "MYSQL_DATABASE"    : "agrovg66_cifarm",
        "MYSQL_PORT"        : "3306"
    }
}